{
  "current_page": 1,
  "data": [
    {
      "guid": 1249282,
      "name": "Спикер",
      "race": 1,
      "gender": 0,
      "class": 4,
      "level": 80,
      "realm_id": 9,
      "world": "Scourge x2 - 3.3.5a+",
      "zodiac": {
        "id": 850,
        "name": "Созвездие Льва"
      },
      "hardcore_challenge": null
    },
    {
      "guid": 1739569,
      "name": "Bogginya",
      "race": 18,
      "gender": 1,
      "class": 11,
      "level": 80,
      "realm_id": 9,
      "world": "Scourge x2 - 3.3.5a+",
      "zodiac": {
        "id": 861,
        "name": "Созвездие Торговца"
      },
      "hardcore_challenge": null
    },
    {
      "guid": 2137699,
      "name": "Anika",
      "race": 25,
      "gender": 1,
      "class": 7,
      "level": 80,
      "realm_id": 9,
      "world": "Scourge x2 - 3.3.5a+",
      "zodiac": {
        "id": 853,
        "name": "Созвездие Изобретателя"
      },
      "hardcore_challenge": null
    },
    {
      "guid": 3437867,
      "name": "Койот",
      "race": 12,
      "gender": 0,
      "class": 2,
      "level": 80,
      "realm_id": 9,
      "world": "Scourge x2 - 3.3.5a+",
      "zodiac": {
        "id": 858,
        "name": "Созвездие Варвара"
      },
      "hardcore_challenge": null
    },
    {
      "guid": 3703748,
      "name": "Хенбанк",
      "race": 26,
      "gender": 0,
      "class": 6,
      "level": 80,
      "realm_id": 9,
      "world": "Scourge x2 - 3.3.5a+",
      "zodiac": {
        "id": 853,
        "name": "Созвездие Изобретателя"
      },
      "hardcore_challenge": null
    },
    {
      "guid": 3417411,
      "name": "Dokjhy",
      "race": 10,
      "gender": 0,
      "class": 2,
      "level": 79,
      "realm_id": 9,
      "world": "Scourge x2 - 3.3.5a+",
      "zodiac": {
        "id": 856,
        "name": "Созвездие Аристократа"
      },
      "hardcore_challenge": null
    },
    {
      "guid": 3438073,
      "name": "Astuspvp",
      "race": 10,
      "gender": 0,
      "class": 3,
      "level": 79,
      "realm_id": 9,
      "world": "Scourge x2 - 3.3.5a+",
      "zodiac": {
        "id": 861,
        "name": "Созвездие Торговца"
      },
      "hardcore_challenge": null
    },
    {
      "guid": 3698549,
      "name": "Benik",
      "race": 1,
      "gender": 0,
      "class": 6,
      "level": 74,
      "realm_id": 9,
      "world": "Scourge x2 - 3.3.5a+",
      "zodiac": {
        "id": 850,
        "name": "Созвездие Льва"
      },
      "hardcore_challenge": null
    },
    {
      "guid": 2393345,
      "name": "Миссгретта",
      "race": 12,
      "gender": 1,
      "class": 1,
      "level": 51,
      "realm_id": 9,
      "world": "Scourge x2 - 3.3.5a+",
      "zodiac": {
        "id": 855,
        "name": "Созвездие Волка"
      },
      "hardcore_challenge": null
    },
    {
      "guid": 3711982,
      "name": "Лолипо",
      "race": 20,
      "gender": 1,
      "class": 4,
      "level": 20,
      "realm_id": 9,
      "world": "Scourge x2 - 3.3.5a+",
      "zodiac": {
        "id": 867,
        "name": "Созвездие Лисы"
      },
      "hardcore_challenge": null
    },
    {
      "guid": 3292984,
      "name": "Режимбога",
      "race": 18,
      "gender": 1,
      "class": 2,
      "level": 80,
      "realm_id": 9,
      "world": "Scourge x2 - 3.3.5a+",
      "zodiac": {
        "id": 864,
        "name": "Созвездие Феникса"
      },
      "hardcore_challenge": null
    },
    {
      "guid": 3501707,
      "name": "Cedivh",
      "race": 1,
      "gender": 0,
      "class": 7,
      "level": 80,
      "realm_id": 9,
      "world": "Scourge x2 - 3.3.5a+",
      "zodiac": {
        "id": 869,
        "name": "Созвездие Дракона"
      },
      "hardcore_challenge": null
    },
    {
      "guid": 3347777,
      "name": "Шифу",
      "race": 14,
      "gender": 0,
      "class": 7,
      "level": 80,
      "realm_id": 9,
      "world": "Scourge x2 - 3.3.5a+",
      "zodiac": {
        "id": 851,
        "name": "Созвездие Кузнеца"
      },
      "hardcore_challenge": null
    },
    {
      "guid": 3024065,
      "name": "Umakew",
      "race": 2,
      "gender": 0,
      "class": 7,
      "level": 80,
      "realm_id": 9,
      "world": "Scourge x2 - 3.3.5a+",
      "zodiac": {
        "id": 858,
        "name": "Созвездие Варвара"
      },
      "hardcore_challenge": null
    },
    {
      "guid": 3641719,
      "name": "Rutaer",
      "race": 10,
      "gender": 0,
      "class": 6,
      "level": 80,
      "realm_id": 9,
      "world": "Scourge x2 - 3.3.5a+",
      "zodiac": {
        "id": 852,
        "name": "Созвездие Часового"
      },
      "hardcore_challenge": null
    },
    {
      "guid": 2819649,
      "name": "Майев",
      "race": 4,
      "gender": 1,
      "class": 4,
      "level": 80,
      "realm_id": 9,
      "world": "Scourge x2 - 3.3.5a+",
      "zodiac": {
        "id": 858,
        "name": "Созвездие Варвара"
      },
      "hardcore_challenge": null
    },
    {
      "guid": 3697517,
      "name": "Calaia",
      "race": 1,
      "gender": 1,
      "class": 5,
      "level": 80,
      "realm_id": 9,
      "world": "Scourge x2 - 3.3.5a+",
      "zodiac": {
        "id": 866,
        "name": "Созвездие Гармонии"
      },
      "hardcore_challenge": null
    },
    {
      "guid": 1123243,
      "name": "Бай",
      "race": 2,
      "gender": 0,
      "class": 6,
      "level": 80,
      "realm_id": 9,
      "world": "Scourge x2 - 3.3.5a+",
      "zodiac": {
        "id": 858,
        "name": "Созвездие Варвара"
      },
      "hardcore_challenge": null
    },
    {
      "guid": 3004304,
      "name": "Tavereq",
      "race": 1,
      "gender": 0,
      "class": 1,
      "level": 80,
      "realm_id": 9,
      "world": "Scourge x2 - 3.3.5a+",
      "zodiac": {
        "id": 850,
        "name": "Созвездие Льва"
      },
      "hardcore_challenge": null
    },
    {
      "guid": 2412016,
      "name": "Stepbruh",
      "race": 10,
      "gender": 1,
      "class": 4,
      "level": 80,
      "realm_id": 9,
      "world": "Scourge x2 - 3.3.5a+",
      "zodiac": {
        "id": 864,
        "name": "Созвездие Феникса"
      },
      "hardcore_challenge": null
    },
    {
      "guid": 6975,
      "name": "Lynacom",
      "race": 18,
      "gender": 1,
      "class": 5,
      "level": 80,
      "realm_id": 57,
      "world": "Sirus x5 - 3.3.5a+",
      "zodiac": {
        "id": 862,
        "name": "Созвездие Вуду"
      },
      "hardcore_challenge": null
    },
    {
      "guid": 10572,
      "name": "Фифтисикс",
      "race": 7,
      "gender": 1,
      "class": 7,
      "level": 80,
      "realm_id": 57,
      "world": "Sirus x5 - 3.3.5a+",
      "zodiac": {
        "id": 851,
        "name": "Созвездие Кузнеца"
      },
      "hardcore_challenge": null
    },
    {
      "guid": 11105,
      "name": "Клиртаргетх",
      "race": 18,
      "gender": 1,
      "class": 7,
      "level": 80,
      "realm_id": 57,
      "world": "Sirus x5 - 3.3.5a+",
      "zodiac": {
        "id": 851,
        "name": "Созвездие Кузнеца"
      },
      "hardcore_challenge": null
    },
    {
      "guid": 53970,
      "name": "Xeq",
      "race": 4,
      "gender": 1,
      "class": 5,
      "level": 80,
      "realm_id": 57,
      "world": "Sirus x5 - 3.3.5a+",
      "zodiac": {
        "id": 862,
        "name": "Созвездие Вуду"
      },
      "hardcore_challenge": null
    },
    {
      "guid": 64062,
      "name": "Совсем",
      "race": 4,
      "gender": 1,
      "class": 3,
      "level": 80,
      "realm_id": 57,
      "world": "Sirus x5 - 3.3.5a+",
      "zodiac": {
        "id": 847,
        "name": "Созвездие Ящера"
      },
      "hardcore_challenge": null
    },
    {
      "guid": 96002,
      "name": "Altezza",
      "race": 16,
      "gender": 1,
      "class": 9,
      "level": 80,
      "realm_id": 57,
      "world": "Sirus x5 - 3.3.5a+",
      "zodiac": {
        "id": 851,
        "name": "Созвездие Кузнеца"
      },
      "hardcore_challenge": null
    },
    {
      "guid": 176287,
      "name": "Kocapb",
      "race": 5,
      "gender": 0,
      "class": 7,
      "level": 80,
      "realm_id": 57,
      "world": "Sirus x5 - 3.3.5a+",
      "zodiac": {
        "id": 859,
        "name": "Созвездие Вурдалака"
      },
      "hardcore_challenge": null
    },
    {
      "guid": 199524,
      "name": "Уруруня",
      "race": 25,
      "gender": 1,
      "class": 2,
      "level": 80,
      "realm_id": 57,
      "world": "Sirus x5 - 3.3.5a+",
      "zodiac": {
        "id": 868,
        "name": "Созвездие Демона"
      },
      "hardcore_challenge": null
    },
    {
      "guid": 214364,
      "name": "Валодягвоздь",
      "race": 7,
      "gender": 0,
      "class": 5,
      "level": 80,
      "realm_id": 57,
      "world": "Sirus x5 - 3.3.5a+",
      "zodiac": {
        "id": 862,
        "name": "Созвездие Вуду"
      },
      "hardcore_challenge": null
    },
    {
      "guid": 294909,
      "name": "Jestx",
      "race": 17,
      "gender": 1,
      "class": 4,
      "level": 80,
      "realm_id": 57,
      "world": "Sirus x5 - 3.3.5a+",
      "zodiac": {
        "id": 849,
        "name": "Созвездие Вулкана"
      },
      "hardcore_challenge": null
    },
    {
      "guid": 303719,
      "name": "Йошики",
      "race": 11,
      "gender": 1,
      "class": 7,
      "level": 80,
      "realm_id": 57,
      "world": "Sirus x5 - 3.3.5a+",
      "zodiac": {
        "id": 853,
        "name": "Созвездие Изобретателя"
      },
      "hardcore_challenge": null
    },
    {
      "guid": 310374,
      "name": "Werado",
      "race": 19,
      "gender": 0,
      "class": 6,
      "level": 80,
      "realm_id": 57,
      "world": "Sirus x5 - 3.3.5a+",
      "zodiac": {
        "id": 855,
        "name": "Созвездие Волка"
      },
      "hardcore_challenge": null
    },
    {
      "guid": 349961,
      "name": "Афалина",
      "race": 11,
      "gender": 1,
      "class": 7,
      "level": 80,
      "realm_id": 57,
      "world": "Sirus x5 - 3.3.5a+",
      "zodiac": {
        "id": 855,
        "name": "Созвездие Волка"
      },
      "hardcore_challenge": null
    },
    {
      "guid": 356980,
      "name": "Макария",
      "race": 17,
      "gender": 1,
      "class": 4,
      "level": 80,
      "realm_id": 57,
      "world": "Sirus x5 - 3.3.5a+",
      "zodiac": {
        "id": 847,
        "name": "Созвездие Ящера"
      },
      "hardcore_challenge": null
    },
    {
      "guid": 368601,
      "name": "Nagluho",
      "race": 4,
      "gender": 0,
      "class": 1,
      "level": 80,
      "realm_id": 57,
      "world": "Sirus x5 - 3.3.5a+",
      "zodiac": {
        "id": 850,
        "name": "Созвездие Льва"
      },
      "hardcore_challenge": null
    },
    {
      "guid": 493593,
      "name": "Валдо",
      "race": 23,
      "gender": 0,
      "class": 11,
      "level": 80,
      "realm_id": 57,
      "world": "Sirus x5 - 3.3.5a+",
      "zodiac": {
        "id": 865,
        "name": "Созвездие Магистра"
      },
      "hardcore_challenge": null
    },
    {
      "guid": 539006,
      "name": "Dungemaster",
      "race": 10,
      "gender": 1,
      "class": 4,
      "level": 80,
      "realm_id": 57,
      "world": "Sirus x5 - 3.3.5a+",
      "zodiac": {
        "id": 858,
        "name": "Созвездие Варвара"
      },
      "hardcore_challenge": null
    },
    {
      "guid": 588127,
      "name": "Соленье",
      "race": 27,
      "gender": 1,
      "class": 8,
      "level": 80,
      "realm_id": 57,
      "world": "Sirus x5 - 3.3.5a+",
      "zodiac": {
        "id": 852,
        "name": "Созвездие Часового"
      },
      "hardcore_challenge": null
    },
    {
      "guid": 592520,
      "name": "Piixii",
      "race": 20,
      "gender": 1,
      "class": 3,
      "level": 80,
      "realm_id": 57,
      "world": "Sirus x5 - 3.3.5a+",
      "zodiac": {
        "id": 852,
        "name": "Созвездие Часового"
      },
      "hardcore_challenge": null
    },
    {
      "guid": 592869,
      "name": "Deltaplascha",
      "race": 2,
      "gender": 1,
      "class": 2,
      "level": 80,
      "realm_id": 57,
      "world": "Sirus x5 - 3.3.5a+",
      "zodiac": {
        "id": 858,
        "name": "Созвездие Варвара"
      },
      "hardcore_challenge": null
    },
    {
      "guid": 730099,
      "name": "Волкановский",
      "race": 10,
      "gender": 0,
      "class": 6,
      "level": 80,
      "realm_id": 57,
      "world": "Sirus x5 - 3.3.5a+",
      "zodiac": {
        "id": 858,
        "name": "Созвездие Варвара"
      },
      "hardcore_challenge": null
    },
    {
      "guid": 743951,
      "name": "Diablo",
      "race": 5,
      "gender": 1,
      "class": 9,
      "level": 80,
      "realm_id": 57,
      "world": "Sirus x5 - 3.3.5a+",
      "zodiac": {
        "id": 865,
        "name": "Созвездие Магистра"
      },
      "hardcore_challenge": null
    },
    {
      "guid": 793770,
      "name": "Даймон",
      "race": 4,
      "gender": 1,
      "class": 9,
      "level": 80,
      "realm_id": 57,
      "world": "Sirus x5 - 3.3.5a+",
      "zodiac": {
        "id": 857,
        "name": "Созвездие Безликого"
      },
      "hardcore_challenge": null
    },
    {
      "guid": 810177,
      "name": "Ромавар",
      "race": 23,
      "gender": 0,
      "class": 1,
      "level": 80,
      "realm_id": 57,
      "world": "Sirus x5 - 3.3.5a+",
      "zodiac": {
        "id": 865,
        "name": "Созвездие Магистра"
      },
      "hardcore_challenge": null
    },
    {
      "guid": 813454,
      "name": "Heonn",
      "race": 25,
      "gender": 0,
      "class": 9,
      "level": 80,
      "realm_id": 57,
      "world": "Sirus x5 - 3.3.5a+",
      "zodiac": {
        "id": 862,
        "name": "Созвездие Вуду"
      },
      "hardcore_challenge": null
    },
    {
      "guid": 859109,
      "name": "Meyko",
      "race": 18,
      "gender": 1,
      "class": 7,
      "level": 80,
      "realm_id": 57,
      "world": "Sirus x5 - 3.3.5a+",
      "zodiac": {
        "id": 857,
        "name": "Созвездие Безликого"
      },
      "hardcore_challenge": null
    },
    {
      "guid": 879156,
      "name": "Альфаскай",
      "race": 1,
      "gender": 0,
      "class": 6,
      "level": 80,
      "realm_id": 57,
      "world": "Sirus x5 - 3.3.5a+",
      "zodiac": {
        "id": 851,
        "name": "Созвездие Кузнеца"
      },
      "hardcore_challenge": null
    },
    {
      "guid": 879726,
      "name": "Бэрроу",
      "race": 2,
      "gender": 0,
      "class": 6,
      "level": 80,
      "realm_id": 57,
      "world": "Sirus x5 - 3.3.5a+",
      "zodiac": {
        "id": 858,
        "name": "Созвездие Варвара"
      },
      "hardcore_challenge": null
    },
    {
      "guid": 927233,
      "name": "Фуфичка",
      "race": 4,
      "gender": 1,
      "class": 2,
      "level": 80,
      "realm_id": 57,
      "world": "Sirus x5 - 3.3.5a+",
      "zodiac": {
        "id": 850,
        "name": "Созвездие Льва"
      },
      "hardcore_challenge": null
    },
    {
      "guid": 932433,
      "name": "Aleksium",
      "race": 3,
      "gender": 0,
      "class": 1,
      "level": 80,
      "realm_id": 57,
      "world": "Sirus x5 - 3.3.5a+",
      "zodiac": {
        "id": 851,
        "name": "Созвездие Кузнеца"
      },
      "hardcore_challenge": null
    }
  ],
  "first_page_url": "https://sirus.su/api/statistic/online?page=1",
  "from": 1,
  "last_page": 283,
  "last_page_url": "https://sirus.su/api/statistic/online?page=283",
  "links": [
    {
      "url": null,
      "label": "&laquo; Туда",
      "active": false
    },
    {
      "url": "https://sirus.su/api/statistic/online?page=1",
      "label": "1",
      "active": true
    },
    {
      "url": "https://sirus.su/api/statistic/online?page=2",
      "label": "2",
      "active": false
    },
    {
      "url": "https://sirus.su/api/statistic/online?page=3",
      "label": "3",
      "active": false
    },
    {
      "url": "https://sirus.su/api/statistic/online?page=4",
      "label": "4",
      "active": false
    },
    {
      "url": "https://sirus.su/api/statistic/online?page=5",
      "label": "5",
      "active": false
    },
    {
      "url": "https://sirus.su/api/statistic/online?page=6",
      "label": "6",
      "active": false
    },
    {
      "url": "https://sirus.su/api/statistic/online?page=7",
      "label": "7",
      "active": false
    },
    {
      "url": "https://sirus.su/api/statistic/online?page=8",
      "label": "8",
      "active": false
    },
    {
      "url": "https://sirus.su/api/statistic/online?page=9",
      "label": "9",
      "active": false
    },
    {
      "url": "https://sirus.su/api/statistic/online?page=10",
      "label": "10",
      "active": false
    },
    {
      "url": null,
      "label": "...",
      "active": false
    },
    {
      "url": "https://sirus.su/api/statistic/online?page=282",
      "label": "282",
      "active": false
    },
    {
      "url": "https://sirus.su/api/statistic/online?page=283",
      "label": "283",
      "active": false
    },
    {
      "url": "https://sirus.su/api/statistic/online?page=2",
      "label": "Сюда &raquo;",
      "active": false
    }
  ],
  "next_page_url": "https://sirus.su/api/statistic/online?page=2",
  "path": "https://sirus.su/api/statistic/online",
  "per_page": 50,
  "prev_page_url": null,
  "to": 50,
  "total": 14107
}