{
  "current_page": 2,
  "data": [
    {
      "guid": 935886,
      "name": "Вупупиду",
      "race": 10,
      "gender": 1,
      "class": 11,
      "level": 80,
      "realm_id": 57,
      "world": "Sirus x5 - 3.3.5a+",
      "zodiac": {
        "id": 869,
        "name": "Созвездие Дракона"
      },
      "hardcore_challenge": null
    },
    {
      "guid": 972480,
      "name": "Шайлаа",
      "race": 24,
      "gender": 1,
      "class": 7,
      "level": 80,
      "realm_id": 57,
      "world": "Sirus x5 - 3.3.5a+",
      "zodiac": {
        "id": 848,
        "name": "Созвездие Наару"
      },
      "hardcore_challenge": null
    },
    {
      "guid": 1065910,
      "name": "Ланолия",
      "race": 24,
      "gender": 1,
      "class": 1,
      "level": 80,
      "realm_id": 57,
      "world": "Sirus x5 - 3.3.5a+",
      "zodiac": {
        "id": 865,
        "name": "Созвездие Магистра"
      },
      "hardcore_challenge": null
    },
    {
      "guid": 1095382,
      "name": "Tillorn",
      "race": 23,
      "gender": 0,
      "class": 5,
      "level": 80,
      "realm_id": 57,
      "world": "Sirus x5 - 3.3.5a+",
      "zodiac": {
        "id": 862,
        "name": "Созвездие Вуду"
      },
      "hardcore_challenge": null
    },
    {
      "guid": 1110459,
      "name": "Lunevka",
      "race": 18,
      "gender": 0,
      "class": 2,
      "level": 80,
      "realm_id": 57,
      "world": "Sirus x5 - 3.3.5a+",
      "zodiac": {
        "id": 849,
        "name": "Созвездие Вулкана"
      },
      "hardcore_challenge": null
    },
    {
      "guid": 1157548,
      "name": "Holyblaz",
      "race": 10,
      "gender": 1,
      "class": 2,
      "level": 80,
      "realm_id": 57,
      "world": "Sirus x5 - 3.3.5a+",
      "zodiac": {
        "id": 865,
        "name": "Созвездие Магистра"
      },
      "hardcore_challenge": null
    },
    {
      "guid": 1184693,
      "name": "Ангелсангвия",
      "race": 2,
      "gender": 0,
      "class": 6,
      "level": 80,
      "realm_id": 57,
      "world": "Sirus x5 - 3.3.5a+",
      "zodiac": {
        "id": 851,
        "name": "Созвездие Кузнеца"
      },
      "hardcore_challenge": null
    },
    {
      "guid": 1210016,
      "name": "Devastating",
      "race": 27,
      "gender": 1,
      "class": 7,
      "level": 80,
      "realm_id": 57,
      "world": "Sirus x5 - 3.3.5a+",
      "zodiac": {
        "id": 869,
        "name": "Созвездие Дракона"
      },
      "hardcore_challenge": null
    },
    {
      "guid": 1274567,
      "name": "Zanzini",
      "race": 23,
      "gender": 1,
      "class": 11,
      "level": 80,
      "realm_id": 57,
      "world": "Sirus x5 - 3.3.5a+",
      "zodiac": {
        "id": 853,
        "name": "Созвездие Изобретателя"
      },
      "hardcore_challenge": null
    },
    {
      "guid": 1285479,
      "name": "Сздвикпофазе",
      "race": 17,
      "gender": 0,
      "class": 2,
      "level": 80,
      "realm_id": 57,
      "world": "Sirus x5 - 3.3.5a+",
      "zodiac": {
        "id": 868,
        "name": "Созвездие Демона"
      },
      "hardcore_challenge": null
    },
    {
      "guid": 1332042,
      "name": "Стёжка",
      "race": 15,
      "gender": 1,
      "class": 6,
      "level": 80,
      "realm_id": 57,
      "world": "Sirus x5 - 3.3.5a+",
      "zodiac": {
        "id": 856,
        "name": "Созвездие Аристократа"
      },
      "hardcore_challenge": null
    },
    {
      "guid": 1347256,
      "name": "Лисёнок",
      "race": 24,
      "gender": 1,
      "class": 7,
      "level": 80,
      "realm_id": 57,
      "world": "Sirus x5 - 3.3.5a+",
      "zodiac": {
        "id": 847,
        "name": "Созвездие Ящера"
      },
      "hardcore_challenge": null
    },
    {
      "guid": 1369852,
      "name": "Ухолом",
      "race": 15,
      "gender": 0,
      "class": 8,
      "level": 80,
      "realm_id": 57,
      "world": "Sirus x5 - 3.3.5a+",
      "zodiac": {
        "id": 858,
        "name": "Созвездие Варвара"
      },
      "hardcore_challenge": null
    },
    {
      "guid": 1385369,
      "name": "Хилказефирка",
      "race": 23,
      "gender": 1,
      "class": 11,
      "level": 80,
      "realm_id": 57,
      "world": "Sirus x5 - 3.3.5a+",
      "zodiac": {
        "id": 847,
        "name": "Созвездие Ящера"
      },
      "hardcore_challenge": null
    },
    {
      "guid": 1470042,
      "name": "Арикоша",
      "race": 27,
      "gender": 1,
      "class": 8,
      "level": 80,
      "realm_id": 57,
      "world": "Sirus x5 - 3.3.5a+",
      "zodiac": {
        "id": 848,
        "name": "Созвездие Наару"
      },
      "hardcore_challenge": null
    },
    {
      "guid": 1481816,
      "name": "Вородор",
      "race": 2,
      "gender": 0,
      "class": 6,
      "level": 80,
      "realm_id": 57,
      "world": "Sirus x5 - 3.3.5a+",
      "zodiac": {
        "id": 858,
        "name": "Созвездие Варвара"
      },
      "hardcore_challenge": null
    },
    {
      "guid": 1577043,
      "name": "Нейросифилис",
      "race": 10,
      "gender": 1,
      "class": 6,
      "level": 80,
      "realm_id": 57,
      "world": "Sirus x5 - 3.3.5a+",
      "zodiac": {
        "id": 850,
        "name": "Созвездие Льва"
      },
      "hardcore_challenge": null
    },
    {
      "guid": 1597413,
      "name": "Mellka",
      "race": 11,
      "gender": 1,
      "class": 7,
      "level": 80,
      "realm_id": 57,
      "world": "Sirus x5 - 3.3.5a+",
      "zodiac": {
        "id": 869,
        "name": "Созвездие Дракона"
      },
      "hardcore_challenge": null
    },
    {
      "guid": 1641695,
      "name": "Гдебыллхилл",
      "race": 2,
      "gender": 0,
      "class": 1,
      "level": 80,
      "realm_id": 57,
      "world": "Sirus x5 - 3.3.5a+",
      "zodiac": {
        "id": 865,
        "name": "Созвездие Магистра"
      },
      "hardcore_challenge": null
    },
    {
      "guid": 1664946,
      "name": "Новэмбер",
      "race": 17,
      "gender": 0,
      "class": 9,
      "level": 80,
      "realm_id": 57,
      "world": "Sirus x5 - 3.3.5a+",
      "zodiac": {
        "id": 865,
        "name": "Созвездие Магистра"
      },
      "hardcore_challenge": null
    },
    {
      "guid": 1697515,
      "name": "Tacc",
      "race": 1,
      "gender": 0,
      "class": 6,
      "level": 80,
      "realm_id": 57,
      "world": "Sirus x5 - 3.3.5a+",
      "zodiac": {
        "id": 851,
        "name": "Созвездие Кузнеца"
      },
      "hardcore_challenge": null
    },
    {
      "guid": 1710134,
      "name": "Hoonix",
      "race": 4,
      "gender": 1,
      "class": 11,
      "level": 80,
      "realm_id": 57,
      "world": "Sirus x5 - 3.3.5a+",
      "zodiac": {
        "id": 857,
        "name": "Созвездие Безликого"
      },
      "hardcore_challenge": null
    },
    {
      "guid": 1763842,
      "name": "Kyubi",
      "race": 10,
      "gender": 1,
      "class": 3,
      "level": 80,
      "realm_id": 57,
      "world": "Sirus x5 - 3.3.5a+",
      "zodiac": {
        "id": 864,
        "name": "Созвездие Феникса"
      },
      "hardcore_challenge": null
    },
    {
      "guid": 1774075,
      "name": "Макрель",
      "race": 15,
      "gender": 1,
      "class": 8,
      "level": 80,
      "realm_id": 57,
      "world": "Sirus x5 - 3.3.5a+",
      "zodiac": {
        "id": 856,
        "name": "Созвездие Аристократа"
      },
      "hardcore_challenge": null
    },
    {
      "guid": 1791878,
      "name": "Удалитьвсех",
      "race": 18,
      "gender": 0,
      "class": 8,
      "level": 80,
      "realm_id": 57,
      "world": "Sirus x5 - 3.3.5a+",
      "zodiac": {
        "id": 857,
        "name": "Созвездие Безликого"
      },
      "hardcore_challenge": null
    },
    {
      "guid": 1822052,
      "name": "Окультный",
      "race": 27,
      "gender": 0,
      "class": 9,
      "level": 80,
      "realm_id": 57,
      "world": "Sirus x5 - 3.3.5a+",
      "zodiac": {
        "id": 857,
        "name": "Созвездие Безликого"
      },
      "hardcore_challenge": null
    },
    {
      "guid": 1844453,
      "name": "Antigeisha",
      "race": 10,
      "gender": 1,
      "class": 8,
      "level": 80,
      "realm_id": 57,
      "world": "Sirus x5 - 3.3.5a+",
      "zodiac": {
        "id": 862,
        "name": "Созвездие Вуду"
      },
      "hardcore_challenge": null
    },
    {
      "guid": 1878034,
      "name": "Persk",
      "race": 17,
      "gender": 1,
      "class": 11,
      "level": 80,
      "realm_id": 57,
      "world": "Sirus x5 - 3.3.5a+",
      "zodiac": {
        "id": 859,
        "name": "Созвездие Вурдалака"
      },
      "hardcore_challenge": null
    },
    {
      "guid": 1950167,
      "name": "Anypay",
      "race": 5,
      "gender": 0,
      "class": 9,
      "level": 80,
      "realm_id": 57,
      "world": "Sirus x5 - 3.3.5a+",
      "zodiac": {
        "id": 865,
        "name": "Созвездие Магистра"
      },
      "hardcore_challenge": null
    },
    {
      "guid": 1970518,
      "name": "Volchoki",
      "race": 12,
      "gender": 0,
      "class": 11,
      "level": 80,
      "realm_id": 57,
      "world": "Sirus x5 - 3.3.5a+",
      "zodiac": {
        "id": 850,
        "name": "Созвездие Льва"
      },
      "hardcore_challenge": null
    },
    {
      "guid": 1981063,
      "name": "Отетс",
      "race": 5,
      "gender": 0,
      "class": 8,
      "level": 80,
      "realm_id": 57,
      "world": "Sirus x5 - 3.3.5a+",
      "zodiac": {
        "id": 851,
        "name": "Созвездие Кузнеца"
      },
      "hardcore_challenge": null
    },
    {
      "guid": 1986362,
      "name": "Kirstrasa",
      "race": 18,
      "gender": 1,
      "class": 3,
      "level": 80,
      "realm_id": 57,
      "world": "Sirus x5 - 3.3.5a+",
      "zodiac": {
        "id": 857,
        "name": "Созвездие Безликого"
      },
      "hardcore_challenge": null
    },
    {
      "guid": 1998343,
      "name": "Taumard",
      "race": 1,
      "gender": 0,
      "class": 2,
      "level": 80,
      "realm_id": 57,
      "world": "Sirus x5 - 3.3.5a+",
      "zodiac": {
        "id": 865,
        "name": "Созвездие Магистра"
      },
      "hardcore_challenge": null
    },
    {
      "guid": 2004000,
      "name": "Arugamer",
      "race": 1,
      "gender": 0,
      "class": 2,
      "level": 80,
      "realm_id": 57,
      "world": "Sirus x5 - 3.3.5a+",
      "zodiac": {
        "id": 851,
        "name": "Созвездие Кузнеца"
      },
      "hardcore_challenge": null
    },
    {
      "guid": 2019581,
      "name": "Простосмерть",
      "race": 27,
      "gender": 0,
      "class": 6,
      "level": 80,
      "realm_id": 57,
      "world": "Sirus x5 - 3.3.5a+",
      "zodiac": {
        "id": 859,
        "name": "Созвездие Вурдалака"
      },
      "hardcore_challenge": null
    },
    {
      "guid": 2024413,
      "name": "Нирвана",
      "race": 7,
      "gender": 1,
      "class": 2,
      "level": 80,
      "realm_id": 57,
      "world": "Sirus x5 - 3.3.5a+",
      "zodiac": {
        "id": 866,
        "name": "Созвездие Гармонии"
      },
      "hardcore_challenge": null
    },
    {
      "guid": 2109038,
      "name": "Равер",
      "race": 10,
      "gender": 0,
      "class": 11,
      "level": 80,
      "realm_id": 57,
      "world": "Sirus x5 - 3.3.5a+",
      "zodiac": {
        "id": 864,
        "name": "Созвездие Феникса"
      },
      "hardcore_challenge": null
    },
    {
      "guid": 2111897,
      "name": "Legallaz",
      "race": 10,
      "gender": 0,
      "class": 3,
      "level": 80,
      "realm_id": 57,
      "world": "Sirus x5 - 3.3.5a+",
      "zodiac": {
        "id": 858,
        "name": "Созвездие Варвара"
      },
      "hardcore_challenge": null
    },
    {
      "guid": 2179061,
      "name": "Тыблака",
      "race": 19,
      "gender": 1,
      "class": 8,
      "level": 80,
      "realm_id": 57,
      "world": "Sirus x5 - 3.3.5a+",
      "zodiac": {
        "id": 849,
        "name": "Созвездие Вулкана"
      },
      "hardcore_challenge": null
    },
    {
      "guid": 2218215,
      "name": "Корягадрянь",
      "race": 11,
      "gender": 0,
      "class": 6,
      "level": 80,
      "realm_id": 57,
      "world": "Sirus x5 - 3.3.5a+",
      "zodiac": {
        "id": 865,
        "name": "Созвездие Магистра"
      },
      "hardcore_challenge": null
    },
    {
      "guid": 2223482,
      "name": "Nutochka",
      "race": 17,
      "gender": 1,
      "class": 5,
      "level": 80,
      "realm_id": 57,
      "world": "Sirus x5 - 3.3.5a+",
      "zodiac": {
        "id": 862,
        "name": "Созвездие Вуду"
      },
      "hardcore_challenge": null
    },
    {
      "guid": 2238222,
      "name": "Фаеррезист",
      "race": 15,
      "gender": 1,
      "class": 8,
      "level": 80,
      "realm_id": 57,
      "world": "Sirus x5 - 3.3.5a+",
      "zodiac": {
        "id": 854,
        "name": "Созвездие Скитальца"
      },
      "hardcore_challenge": null
    },
    {
      "guid": 2239912,
      "name": "Rasalghull",
      "race": 27,
      "gender": 0,
      "class": 6,
      "level": 80,
      "realm_id": 57,
      "world": "Sirus x5 - 3.3.5a+",
      "zodiac": {
        "id": 865,
        "name": "Созвездие Магистра"
      },
      "hardcore_challenge": null
    },
    {
      "guid": 2241076,
      "name": "Царицалеса",
      "race": 4,
      "gender": 1,
      "class": 11,
      "level": 80,
      "realm_id": 57,
      "world": "Sirus x5 - 3.3.5a+",
      "zodiac": {
        "id": 849,
        "name": "Созвездие Вулкана"
      },
      "hardcore_challenge": null
    },
    {
      "guid": 2243831,
      "name": "Laty",
      "race": 4,
      "gender": 1,
      "class": 11,
      "level": 80,
      "realm_id": 57,
      "world": "Sirus x5 - 3.3.5a+",
      "zodiac": {
        "id": 852,
        "name": "Созвездие Часового"
      },
      "hardcore_challenge": null
    },
    {
      "guid": 2248458,
      "name": "Chernoloc",
      "race": 19,
      "gender": 0,
      "class": 9,
      "level": 80,
      "realm_id": 57,
      "world": "Sirus x5 - 3.3.5a+",
      "zodiac": {
        "id": 867,
        "name": "Созвездие Лисы"
      },
      "hardcore_challenge": null
    },
    {
      "guid": 2287135,
      "name": "Кичя",
      "race": 23,
      "gender": 0,
      "class": 8,
      "level": 80,
      "realm_id": 57,
      "world": "Sirus x5 - 3.3.5a+",
      "zodiac": {
        "id": 866,
        "name": "Созвездие Гармонии"
      },
      "hardcore_challenge": null
    },
    {
      "guid": 2307562,
      "name": "Pecca",
      "race": 1,
      "gender": 1,
      "class": 3,
      "level": 80,
      "realm_id": 57,
      "world": "Sirus x5 - 3.3.5a+",
      "zodiac": {
        "id": 850,
        "name": "Созвездие Льва"
      },
      "hardcore_challenge": null
    },
    {
      "guid": 2345473,
      "name": "Laskan",
      "race": 11,
      "gender": 1,
      "class": 11,
      "level": 80,
      "realm_id": 57,
      "world": "Sirus x5 - 3.3.5a+",
      "zodiac": {
        "id": 866,
        "name": "Созвездие Гармонии"
      },
      "hardcore_challenge": null
    },
    {
      "guid": 2346366,
      "name": "Вжикпик",
      "race": 20,
      "gender": 0,
      "class": 7,
      "level": 80,
      "realm_id": 57,
      "world": "Sirus x5 - 3.3.5a+",
      "zodiac": {
        "id": 864,
        "name": "Созвездие Феникса"
      },
      "hardcore_challenge": null
    }
  ],
  "first_page_url": "https://sirus.su/api/statistic/online?page=1",
  "from": 51,
  "last_page": 283,
  "last_page_url": "https://sirus.su/api/statistic/online?page=283",
  "links": [
    {
      "url": "https://sirus.su/api/statistic/online?page=1",
      "label": "&laquo; Туда",
      "active": false
    },
    {
      "url": "https://sirus.su/api/statistic/online?page=1",
      "label": "1",
      "active": false
    },
    {
      "url": "https://sirus.su/api/statistic/online?page=2",
      "label": "2",
      "active": true
    },
    {
      "url": "https://sirus.su/api/statistic/online?page=3",
      "label": "3",
      "active": false
    },
    {
      "url": "https://sirus.su/api/statistic/online?page=4",
      "label": "4",
      "active": false
    },
    {
      "url": "https://sirus.su/api/statistic/online?page=5",
      "label": "5",
      "active": false
    },
    {
      "url": "https://sirus.su/api/statistic/online?page=6",
      "label": "6",
      "active": false
    },
    {
      "url": "https://sirus.su/api/statistic/online?page=7",
      "label": "7",
      "active": false
    },
    {
      "url": "https://sirus.su/api/statistic/online?page=8",
      "label": "8",
      "active": false
    },
    {
      "url": "https://sirus.su/api/statistic/online?page=9",
      "label": "9",
      "active": false
    },
    {
      "url": "https://sirus.su/api/statistic/online?page=10",
      "label": "10",
      "active": false
    },
    {
      "url": null,
      "label": "...",
      "active": false
    },
    {
      "url": "https://sirus.su/api/statistic/online?page=282",
      "label": "282",
      "active": false
    },
    {
      "url": "https://sirus.su/api/statistic/online?page=283",
      "label": "283",
      "active": false
    },
    {
      "url": "https://sirus.su/api/statistic/online?page=3",
      "label": "Сюда &raquo;",
      "active": false
    }
  ],
  "next_page_url": "https://sirus.su/api/statistic/online?page=3",
  "path": "https://sirus.su/api/statistic/online",
  "per_page": 50,
  "prev_page_url": "https://sirus.su/api/statistic/online?page=1",
  "to": 100,
  "total": 14107
}